…
### 5.1 Fit a model that doesn’t account for censoring and truncation

We will start with the simplest model, which does not account for
censoring or truncation. Behind the scenes this model is essentially
just a wrapper around the `brms` package. To use this model we need to
use the
[`as_epidist_naive_model()`](https://epidist.epinowcast.org/dev/reference/as_epidist_naive_model.md)
function.

``` r
naive_data <- as_epidist_naive_model(linelist_data)
naive_data
#> # A tibble: 200 × 13
#>    ptime_lwr ptime_upr stime_lwr stime_upr obs_time    id pdate_lwr  sdate_lwr 
#>        <dbl>     <dbl>     <dbl>     <dbl>    <dbl> <int> <date>     <date>    
#>  1        15        16        23        24       25  1280 2024-02-16 2024-02-24
#>  2        18        19        24        25       25  2167 2024-02-19 2024-02-25
#>  3        11        12        13        14       25   743 2024-02-12 2024-02-14
#>  4        18        19        21        22       25  2257 2024-02-19 2024-02-22
#>  5        17        18        19        20       25  1820 2024-02-18 2024-02-20
#>  6        14        15        18        19       25  1107 2024-02-15 2024-02-19
#>  7        10        11        16        17       25   535 2024-02-11 2024-02-17
#>  8        10        11        11        12       25   583 2024-02-11 2024-02-12
#>  9         7         8        12        13       25   286 2024-02-08 2024-02-13
#> 10        16        17        22        23       25  1616 2024-02-17 2024-02-23
#> # ℹ 190 more rows
#> # ℹ 5 more variables: obs_date <date>, pdate_upr <date>, sdate_upr <date>,
#> #   delay <dbl>, n <dbl>
```
…
`epidist` provides a range of models that can account for biases in
observed data. In most cases, we recommend using the marginal model.
This model accounts for interval censoring of the primary and secondary
events and right truncation of the secondary event. Behind the scenes it
uses a likelihood from the [`primarycensored` R
package](https://primarycensored.epinowcast.org/). This package contains
exact numerical and analytical solutions for numerous double censored
and truncated distributions in both Stan and R. The documentation for
`primarycensored` is a good place for learning more about this.

``` r
marginal_data <- as_epidist_marginal_model(linelist_data)
marginal_data
#> # A tibble: 200 × 18
#>    ptime_lwr ptime_upr stime_lwr stime_upr obs_time    id pdate_lwr  sdate_lwr 
#>        <dbl>     <dbl>     <dbl>     <dbl>    <dbl> <int> <date>     <date>    
#>  1        15        16        23        24       25  1280 2024-02-16 2024-02-24
#>  2        18        19        24        25       25  2167 2024-02-19 2024-02-25
#>  3        11        12        13        14       25   743 2024-02-12 2024-02-14
#>  4        18        19        21        22       25  2257 2024-02-19 2024-02-22
#>  5        17        18        19        20       25  1820 2024-02-18 2024-02-20
#>  6        14        15        18        19       25  1107 2024-02-15 2024-02-19
#>  7        10        11        16        17       25   535 2024-02-11 2024-02-17
#>  8        10        11        11        12       25   583 2024-02-11 2024-02-12
#>  9         7         8        12        13       25   286 2024-02-08 2024-02-13
#> 10        16        17        22        23       25  1616 2024-02-17 2024-02-23
#> # ℹ 190 more rows
#> # ℹ 10 more variables: obs_date <date>, pdate_upr <date>, sdate_upr <date>,
#> #   pwindow <dbl>, swindow <dbl>, relative_obs_time <dbl>,
#> #   orig_relative_obs_time <dbl>, delay_lwr <dbl>, delay_upr <dbl>, n <dbl>
```
…
