The marginal model method for epidist_linelist_data objects — as_epidist_marginal_model.epidist_linelist_data • epidist
…
    Examples

sierra_leone_ebola_data |>
  as_epidist_linelist_data(
    pdate_lwr = "date_of_symptom_onset",
    sdate_lwr = "date_of_sample_tested"
  ) |>
  as_epidist_marginal_model()
#> ℹ No primary event upper bound provided, using the primary event lower bound + 1 day as the assumed upper bound.
#> ℹ No secondary event upper bound provided, using the secondary event lower bound + 1 day as the assumed upper bound.
#> ℹ No observation time column provided, using 2015-09-14 as the observation date (the maximum of the secondary event upper bound).
#> ! Setting 8294 observation times beyond 98 (=2x max delay) to Inf. This
#>   improves model efficiency by reducing unique observation times while
#>   maintaining model accuracy as these times should have negligible impact.
#> # A tibble: 8,358 × 22
#>    ptime_lwr ptime_upr stime_lwr stime_upr obs_time    id   age sex   pdate_lwr 
#>        <dbl>     <dbl>     <dbl>     <dbl>    <dbl> <int> <dbl> <chr> <date>    
#>  1         0         1         5         6      484     1    20 Fema… 2014-05-18
#>  2         2         3         7         8      484     2    42 Fema… 2014-05-20
#>  3         2         3         7         8      484     3    45 Fema… 2014-05-20
#>  4         3         4         8         9      484     4    15 Fema… 2014-05-21
#>  5         3         4         8         9      484     5    19 Fema… 2014-05-21
#>  6         3         4         8         9      484     6    55 Fema… 2014-05-21
#>  7         3         4         8         9      484     7    50 Fema… 2014-05-21
#>  8         4         5         9        10      484     8     8 Fema… 2014-05-22
#>  9         4         5         9        10      484     9    54 Fema… 2014-05-22
#> 10         4         5         9        10      484    10    57 Fema… 2014-05-22
#> # ℹ 8,348 more rows
#> # ℹ 13 more variables: sdate_lwr <date>, district <chr>, chiefdom <chr>,
#> #   pdate_upr <date>, sdate_upr <date>, obs_date <date>, pwindow <dbl>,
#> #   swindow <dbl>, relative_obs_time <dbl>, orig_relative_obs_time <dbl>,
#> #   delay_lwr <dbl>, delay_upr <dbl>, n <dbl>
…
